CM TEST INPUTS,,,,,,,,,,,,,,,,,,,,,,,,,,,,,,,,,,,,,,,,,,,,,,,,,,,,,,,,,,,,
FAMILY_TYPE,1,,,,,,,,,,,,,,,,,,,,,,,,,,,,,,,,,,,,,,,,,,,,,,,,,,,,,,,,,,,
CM_RANGE_LIMIT_ROW,1200,,,,,,,,,,,,,,,,,,,,,,,,,,,,,,,,,,,,,,,,,,,,,,,,,,,,,,,,,,,
CM_RANGE_LIMIT_COL,1200,,,,,,,,,,,,,,,,,,,,,,,,,,,,,,,,,,,,,,,,,,,,,,,,,,,,,,,,,,,
CM_MIN_LIMIT_CAL,0,,,,,,,,,,,,,,,,,,,,,,,,,,,,,,,,,,,,,,,,,,,,,,,,,,,,,,,,,,,
CM_MAX_LIMIT_CAL,24000,,,,,,,,,,,,,,,,,,,,,,,,,,,,,,,,,,,,,,,,,,,,,,,,,,,,,,,,,,,
CM_MAX_DELTA_SENSOR_PERCENT,12,,,,,,,,,,,,,,,,,,,,,,,,,,,,,,,,,,,,,,,,,,,,,,,,,,,,,,,,,,,
CM_EXCLUDING_COL_EDGE,1,,,,,,,,,,,,,,,,,,,,,,,,,,,,,,,,,,,,,,,,,,,,,,,,,,,,,,,,,,,
CM_EXCLUDING_ROW_EDGE,0,,,,,,,,,,,,,,,,,,,,,,,,,,,,,,,,,,,,,,,,,,,,,,,,,,,,,,,,,,,
CM_GRADIENT_CHECK_COL,16,17,18,19,18,18,19,19,19,19,23,20,20,20,20,20,20,20,20,19,19,,,,,,,,,,,,,,,,,,,,,,,,,,,,,,,,,,,,,,,,,,,,,,,
CM_GRADIENT_CHECK_ROW,17,18,19,20,19,20,20,20,20,20,19,20,19,19,20,20,20,21,20,21,20,20,20,20,20,19,20,20,20,22,21,20,20,19,19,17,,,,,,,,,,,,,,,,,,,,,,,,,,,,,,,,,,
DIFF_NOISE_THRESHOLD,10000,,,,,,,,,,,,,,,,,,,,,,,,,,,,,,,,,,,,,,,,,,,,,,,,,,,,,,,,,,,
PER_ELEMENT_MIN_MAX_TABLE_SENSOR,3248,5520,3048,5100,3048,5052,3056,5088,3008,5088,3016,5076,3000,4992,3008,5028,2960,5016,2984,4980,3008,4968,3000,4944,2960,4944,2968,5028,3000,5016,2960,4980,2960,4956,3000,4980,3024,4980,3008,5028,2960,5040,2976,4956,3008,4932,3008,5052,3000,4980,3008,5040,3008,5040,3008,5028,2992,5040,3008,5052,3048,5112,3008,5112,3016,5112,3072,5124,3072,5184,3240,5412,
,3240,5532,3040,5148,3072,5136,3048,5124,3032,5112,3048,5100,3040,5064,3056,5112,3040,5172,3064,5088,3056,5088,3048,5028,3056,5076,3032,5100,3016,5052,3024,5076,3016,5088,3000,5112,3000,5112,3016,5076,2992,5040,3016,5028,3032,5028,3056,5028,3072,5112,3048,5076,3048,5136,3056,5136,3048,5160,3064,5184,3104,5196,3072,5184,3128,5184,3128,5196,3152,5268,3328,5496,
,3224,5508,3056,5112,3048,5100,3056,5112,3032,5100,3000,5088,2992,5076,2992,5028,3016,5052,3048,5052,3048,5028,3048,5100,3032,5004,3000,5052,3000,5052,2992,5016,3040,5076,3024,5100,3024,5100,2960,5052,2976,5028,3032,5040,3024,4980,3056,5052,3040,5040,3040,5100,3016,5088,3064,5028,3048,5052,3144,5256,3096,5196,3096,5124,3112,5172,3072,5184,3096,5196,3328,5532,
,3184,5508,3040,5100,3024,5112,3000,5100,3056,5100,2984,5088,2976,5076,2960,5064,3008,5028,3032,5040,3000,5028,3032,5124,2984,5076,2992,5040,2992,5040,2984,5028,2960,5112,3000,5088,2984,5076,2952,5028,3000,5040,2968,5004,3008,4968,3000,5052,2984,5004,3000,5100,2960,5076,3000,5040,3048,5064,3144,5244,3048,5112,3048,5124,3016,5184,3120,5160,3120,5184,3344,5496,
,3224,5460,3048,5088,3032,5052,3032,5100,2992,5088,3000,5076,2992,5124,3008,5016,3016,5052,3040,5016,3008,4980,3032,5124,2984,5088,3008,5052,3008,5040,2984,5028,3000,5088,2976,5112,3000,5100,3008,4968,2992,5040,3016,4992,3016,4956,3008,5052,3016,5040,3000,5100,3000,5088,3024,5028,3056,5052,3040,5040,3056,5112,3080,5112,3056,5124,3104,5160,3112,5244,3344,5520,
,3232,5508,3064,5088,3016,5184,3032,5124,3032,5112,3000,5088,2992,5112,3016,5076,3016,5028,2976,5028,3008,5004,3000,5028,2976,5100,2992,5076,2992,5004,2992,5112,3008,5124,3000,5088,3000,5088,2968,5040,2960,4956,3000,5052,3008,5052,3008,5040,3008,5124,3016,5088,2984,5136,3032,5124,3048,5076,3040,5088,3056,5100,3056,5124,3080,5184,3112,5184,3104,5160,3288,5568,
,3232,5460,2960,5088,2952,5040,2960,5100,3008,5088,2944,5076,2984,5052,2976,5028,2960,5040,2960,5028,2968,5100,2960,5028,2968,5088,2952,5040,2960,5040,2952,5016,2984,5076,2960,5100,2960,5100,2960,5052,2952,5016,2960,4980,2984,4932,2968,5040,3000,5028,3040,5028,2992,5100,3016,5040,3048,5028,3040,5088,3048,5124,3040,5100,3000,5124,3064,5196,3104,5244,3296,5472,
,3248,5400,3016,5040,3008,5028,2984,5124,2992,5112,2992,5112,2960,5040,3000,5004,2960,5016,2976,5028,2968,4956,2984,4956,2976,4992,2968,5016,2968,5016,2968,5052,2960,5004,2976,4956,2960,4968,2928,4956,2984,5016,2928,4992,2960,5052,2984,5040,2984,5028,2984,5100,2976,5076,3016,5004,3008,5028,2960,5016,3064,5052,3056,5088,3048,5112,3048,5124,3104,5220,3336,5556,
,3232,5412,3000,5040,2984,5016,2968,5100,2992,5076,2976,5076,2984,5052,3000,4968,2984,5040,2960,5016,2968,4992,2960,5016,2960,5076,2984,5028,2968,5028,2968,5064,2976,5004,2968,5072,2976,4980,2952,4968,2976,5016,2912,5004,2984,4944,2976,5052,2984,5028,2976,5112,2976,5088,3000,5004,3024,5028,2968,5040,3040,5052,3008,5124,3048,5112,3088,5172,3120,5184,3328,5460,
,3224,5400,2952,5004,2976,5016,2944,5076,3000,5100,2936,5040,2976,5004,2960,4992,2984,4920,2960,5004,2968,4932,2968,5004,2952,5057,2920,5028,2944,5016,2968,5040,2936,4980,2960,4968,2968,4932,2952,4956,2944,5016,2936,5004,2976,4932,2952,5040,2976,4944,3000,5112,2984,5076,2984,5004,2936,5040,3008,5040,3000,5016,3016,5100,3048,5112,3056,5172,3104,5088,3336,5448,
,3224,5400,2984,5100,3008,4968,2936,5100,2928,5100,2960,5040,2936,4980,2880,5004,2968,4956,2944,4968,2936,4944,2920,4956,2912,4980,2864,4956,2928,4908,2904,4908,2936,4872,2920,4872,2952,4968,2920,4932,2920,4908,2920,4968,2912,4968,2896,4992,2928,5040,2960,4944,2976,4968,2984,4968,2960,5052,3024,5040,3000,5124,3008,5112,2976,5124,3056,5124,3104,5172,3296,5496,
,3208,5424,2952,5004,2976,5004,2952,5088,2936,4992,2920,5040,2904,4968,2888,4956,2888,4920,2912,4968,2904,4980,2936,4848,2888,4896,2880,4884,2912,4872,2920,4896,2880,4920,2944,4872,2952,4944,2928,4920,2880,4920,2848,4920,2912,4980,2864,4932,2912,4992,2952,4932,2960,4944,2968,4992,3016,5028,2928,5052,3008,5028,3040,5100,2960,5100,3032,5136,3056,5172,3296,5496,
,3216,5424,3008,5004,2992,4980,2992,5100,2944,4896,2920,5028,2904,4896,2888,4944,2936,4956,2912,4968,2928,4956,2920,4860,2928,5016,2880,4872,2912,4860,2920,4932,2880,4872,2944,4860,2944,4956,2920,4908,2872,4896,2848,4968,2920,4896,2856,4896,2912,4944,2992,4944,2968,4956,2976,5004,2960,4992,2936,5052,3008,5040,3008,5112,2960,5088,3056,5124,3096,5196,3240,5496,
,3224,5412,2984,5040,2984,4968,2936,5076,2936,5088,2968,5028,2896,4980,2880,4956,2928,4944,2936,4968,2824,4920,2944,4860,2888,4932,2864,4908,2896,4896,2904,4908,2904,4908,2880,4884,2912,4944,2872,4860,2880,4908,2888,4956,2872,4980,2864,4872,2872,4980,2952,4980,2960,4968,2968,4956,2912,5004,2936,5124,2936,5100,3000,5112,2984,5124,3048,5148,3104,5184,3288,5532,
,3208,5412,2960,4992,3008,4956,2952,5088,2928,4980,2952,5085,2888,4908,2824,4932,2872,4908,2928,4908,2824,4932,3016,5052,2888,4956,2856,4896,2928,4956,2904,4920,2872,4896,2896,4872,2928,4956,2840,4884,2872,4884,2872,4980,2872,4896,2864,4848,2872,4920,2952,4956,2920,4956,2960,4944,2928,5016,2992,5028,2872,5016,3016,5112,3000,5064,3048,5136,3104,5136,3320,5580,
,3232,5400,3024,5004,3008,4968,2920,5088,2944,4944,2968,5040,2896,4944,2888,4932,2928,4908,2936,4896,2920,4956,2992,5088,2936,4956,2880,4860,2912,4896,2880,4896,2880,4872,2928,4848,2888,4932,2936,4920,2904,4836,2928,4872,2904,4884,2896,4848,2960,4956,2968,4908,2960,4968,2960,5004,2944,5004,2912,5004,3008,5076,3016,5028,2960,5052,3000,5112,3072,5184,3312,5544,
,3184,5412,2960,5004,3016,5040,2944,5088,2928,4896,2952,4968,2888,4920,2824,4968,2832,4908,2920,4908,2824,4944,2928,5040,2888,4884,2872,4884,3024,5100,2904,4908,2872,4908,2904,4872,2960,4944,2928,4908,2880,4920,2896,4932,2912,4860,2856,4896,2920,4896,2960,4896,2952,4956,2960,4956,2928,4968,2912,5028,2920,5016,3024,5088,3000,5028,3048,5112,3040,5112,3240,5508,
,3216,5424,2984,4980,3016,4980,2968,5100,2936,4968,2960,4980,2896,4956,2880,4956,2920,4908,2928,4920,2920,4968,2872,4872,2888,4884,2880,4908,2936,4908,2912,4908,2872,4896,2936,4884,2944,4908,2912,4860,2872,4920,2896,4944,2912,4836,2864,4860,2944,4884,2968,4908,2952,4968,2952,4944,2912,5004,2960,4956,2936,5100,3008,5052,2992,5052,3032,5100,3048,5148,3192,5400,
,3192,5424,2928,5004,2960,4980,2960,5107,2928,4932,2960,4908,2888,4968,2824,4920,2864,4944,2920,4896,2816,4968,2944,4896,2832,4872,2872,4884,2936,4944,2904,4872,2880,4920,2904,4884,2928,4896,2928,4812,2848,4908,2864,4860,2880,4908,2864,4848,2864,4932,2944,4944,2952,4944,2952,4920,2952,5028,2912,4920,2872,5004,2880,5052,2944,5040,2992,5112,3072,5100,3192,5400,
,3232,5484,2960,5004,3008,4992,2968,5088,2936,4932,2960,5016,2896,4920,2832,4968,2912,4908,2928,4884,2912,4956,2944,4848,2904,4836,2896,4884,2952,5040,2896,4872,2872,4908,2936,4896,2904,4824,2920,4788,2848,4920,2864,4860,2872,4848,2864,4848,2920,4872,2952,4956,2960,4872,2960,4980,2944,4956,2912,4920,2872,5004,2888,4968,2888,5004,2976,5124,3048,5124,3168,5424,
,3224,5568,2928,4980,3016,4968,2912,5083,2944,4908,2920,4968,2864,4920,2840,4872,2904,4884,2920,4908,2816,4980,2936,4872,2864,4848,2864,4896,2920,4884,2864,4896,2864,4860,2880,4872,2912,4836,2824,4812,2856,4848,2816,4908,2880,4848,2824,4836,2832,4848,2808,4968,2912,4932,2952,4920,2880,5028,2896,4908,2944,4968,2872,5040,2896,4992,2928,5088,3008,5136,3184,5400,
CP TEST INPUTS,,,,,,,,,,,,,,,,,,,,,,,,,,,,,,,,,,,,,,,,,,,,,,,,,,,,,,,,,,,,
CP_MAX_DELTA_SENSOR_RX_PERCENT,32,,,,,,,,,,,,,,,,,,,,,,,,,,,,,,,,,,,,,,,,,,,,,,,,,,,,,,,,,,,
CP_MAX_DELTA_SENSOR_TX_PERCENT,20,,,,,,,,,,,,,,,,,,,,,,,,,,,,,,,,,,,,,,,,,,,,,,,,,,,,,,,,,,,
PER_ELEMENT_MIN_MAX_RX,17488,52464,17864,53593,17877,53632,17887,53661,17697,53091,17947,53842,17935,53805,18196,54588,18107,54321,18148,54445,17900,53700,19989,59967,18308,54923,18476,55427,18474,55422,18642,55927,19187,57561,19130,57391,19551,58652,20923,62770,28421,85263,,,,,,,,,,,,,,,,,,,,,,,,,,
PER_ELEMENT_MIN_MAX_TX,48416,145247,47079,141236,47172,141516,46765,140294,46924,140771,47056,141167,47559,142678,46921,140762,47478,142433,46945,140834,48629,145888,47407,142220,48067,144201,47175,141524,48160,144479,47454,142362,48075,144225,48135,144406,46676,140029,47267,141802,46532,139595,47206,141619,46778,140334,47238,141713,47352,142056,47585,142754,46824,140471,47384,142153,46671,140014,47734,143203,47542,142626,47829,143488,47830,143490,48327,144981,48480,145439,49399,148196
